Introduction to the {ggsurvfit} R Package - Visualizing Survival Data with the {ggsurvfit} R Package
…
Data

The following examples use a labeled version of the survival::colon data set.

Data

library(ggsurvfit)
library(gtsummary)
library(tidyverse)

df_colon <- df_colon |> select(time, status, surg)
df_colon

# A tibble: 929 × 3
    time status surg                       
   <dbl>  <dbl> <fct>                      
 1 2.65       1 Limited Time Since Surgery 
 2 8.45       0 Limited Time Since Surgery 
 3 1.48       1 Limited Time Since Surgery 
 4 0.671      1 Extended Time Since Surgery
 5 1.43       1 Extended Time Since Surgery
 6 2.48       1 Limited Time Since Surgery 
 7 0.627      1 Extended Time Since Surgery
 8 8.74       0 Limited Time Since Surgery 
 9 8.69       0 Limited Time Since Surgery 
10 9.06       0 Extended Time Since Surgery
# ℹ 919 more rows
…
